<?xml version="1.0" encoding="UTF-8" standalone="no"?>
<svg
   xmlns:dc="http://purl.org/dc/elements/1.1/"
   xmlns:cc="http://creativecommons.org/ns#"
   xmlns:rdf="http://www.w3.org/1999/02/22-rdf-syntax-ns#"
   xmlns:svg="http://www.w3.org/2000/svg"
   xmlns="http://www.w3.org/2000/svg"
   height="8"
   width="8"
   id="svg4"
   version="1.1"
   viewBox="0 0 8 8">
  <metadata
     id="metadata10">
    <rdf:RDF>
      <cc:Work
         rdf:about="">
        <dc:format>image/svg+xml</dc:format>
        <dc:type
           rdf:resource="http://purl.org/dc/dcmitype/StillImage" />
        <dc:title></dc:title>
      </cc:Work>
    </rdf:RDF>
  </metadata>
  <defs
     id="defs8" />
  <path
     style="stroke-width:0.01612903"
     id="path2"
     d="m 4.0677966,0.06779663 c -2.2091452,0 -4.00000001,1.79085007 -4.00000001,4.00000007 0,2.20915 1.79085481,4 4.00000001,4 2.209145,0 4,-1.79085 4,-4 0,-2.20915 -1.790855,-4.00000007 -4,-4.00000007 z m 0,7.22581007 c -1.782774,0 -3.22580651,-1.44276 -3.22580651,-3.22581 0,-1.78276 1.44275851,-3.22581003 3.22580651,-3.22581003 1.782774,0 3.225806,1.44276003 3.225806,3.22581003 0,1.78277 -1.442758,3.22581 -3.225806,3.22581 z m 1.731468,-1.63007 c -0.155065,0.15665 -0.734355,0.66768 -1.678468,0.66768 -1.329516,0 -2.265871,-0.99073 -2.265871,-2.28334 0,-1.27664 0.972177,-2.2484 2.254226,-2.2484 0.895661,0 1.431258,0.42935 1.57408,0.56095 a 0.19298387,0.19298387 0 0 1 0.03123,0.24713 l -0.292822,0.45343 c -0.06195,0.096 -0.193,0.11746 -0.282242,0.0471 -0.138629,-0.10929 -0.513129,-0.36352 -0.995291,-0.36352 -0.77908,0 -1.256709,0.56984 -1.256709,1.29165 0,0.67079 0.433677,1.34987 1.262532,1.34987 0.526726,0 0.916823,-0.30708 1.060097,-0.43912 0.085,-0.0783 0.21929,-0.0651 0.287419,0.028 l 0.320403,0.43822 a 0.19269355,0.19269355 0 0 1 -0.01858,0.25029 z" />
</svg>
